2014-12-18 2:13:42 -  - ::1 - UPDATE abmmi_messages SET `repeated` = `repeated` + 1, viewed='0' WHERE msg_id = '330'
2014-12-18 2:13:43 -  - ::1 - UPDATE abmmi_messages SET `repeated` = `repeated` + 1, viewed='0' WHERE msg_id = '330'
2014-12-18 4:04:11 -  - ::1 - UPDATE abmmi_messages SET `repeated` = `repeated` + 1, viewed='0' WHERE msg_id = '35'
2014-12-18 4:04:11 -  - ::1 - UPDATE abmmi_messages SET `repeated` = `repeated` + 1, viewed='0' WHERE msg_id = '330'
2014-12-18 4:04:16 -  - ::1 - UPDATE abmmi_messages SET `repeated` = `repeated` + 1, viewed='0' WHERE msg_id = '35'
2014-12-18 4:04:16 -  - ::1 - UPDATE abmmi_messages SET `repeated` = `repeated` + 1, viewed='0' WHERE msg_id = '330'
2014-12-18 4:04:21 - 1 - ::1 - UPDATE abmmi_users							  SET last_login = NOW()							  WHERE user_id = '1'
2014-12-18 4:04:21 - 1 - ::1 - UPDATE abmmi_users      			                  SET ip = '::1'      			                  WHERE user_id = '1'
2014-12-18 4:04:24 - 1 - ::1 - DELETE FROM abmmi_ant_messages WHERE id IN ('poll_01')
2014-12-18 4:04:24 - 1 - ::1 - INSERT INTO abmmi_ant_messages (`id`,															`priority`,															`start_date`,															`end_date`,															`viewed_date`,															`viewed`,															`title`,															`description`,															`html`,															`url`,															`language_code`)				VALUES ('poll_01',						'1',						'0000-00-00 00:00:00',						'2030-01-01',						'2014-12-16 13:30:46',						'2196',						'Help us to build better AbanteCart for you',						'',						'<p><span style=\"font-size: medium;\">We are looking for your help to make our abantecart software even better. Please take a few minutes of your time to fill out a <a href=\"https://docs.google.com/spreadsheet/viewform?fromEmail=true&formkey=dFdDdmwxNmxlc3lnVkY1NXVSWEhSbFE6MA\" target=\"new\">short survey</a></span></p>',						'',						'*')
2014-12-18 4:04:24 - 1 - ::1 - DELETE FROM abmmi_ant_messages WHERE id IN ('softaculous_review')
2014-12-18 4:04:24 - 1 - ::1 - INSERT INTO abmmi_ant_messages (`id`,															`priority`,															`start_date`,															`end_date`,															`viewed_date`,															`viewed`,															`title`,															`description`,															`html`,															`url`,															`language_code`)				VALUES ('softaculous_review',						'1',						'0000-00-00 00:00:00',						'2030-01-01',						'2014-12-17 16:33:39',						'2193',						'Help up making AbanteCart #1',						'',						'Do you like <strong>AbanteCart</strong>? Please rate AbanteCart or share your experience with other eCommerce entrepreneurs. Go to <strong><a href=\"http://www.softaculous.com/rate/AbanteCart\" target=\"_blank\">Softaculous rating page</a></strong> to add your rating or <strong><a href=\"http://www.softaculous.com/review/AbanteCart\" target=\"_blank\">write a review</a></strong>',						'',						'*')
2014-12-18 4:04:24 - 1 - ::1 - DELETE FROM abmmi_ant_messages WHERE id IN ('banner')
2014-12-18 4:04:24 - 1 - ::1 - INSERT INTO abmmi_ant_messages (`id`,															`priority`,															`start_date`,															`end_date`,															`viewed_date`,															`viewed`,															`title`,															`description`,															`html`,															`url`,															`language_code`)				VALUES ('banner',						'1',						'2011-09-16 06:54:47',						'2030-01-01',						'2014-12-17 16:34:00',						'2199',						'Banner at AbanteCart header',						'',						'<strong>AbanteCart</strong> V1.2 is a current shopping cart version. New in version: Brand new admin user interface and many more features. <strong><a href=\"http://www.abantecart.com/shopping-cart-news/item/485-abantecart-12-released\" target=\"_blank\">Learn more ... </a></strong>',						'http://www.abantecart.com',						'*')
2014-12-18 4:04:24 - 1 - ::1 - DELETE FROM abmmi_ant_messages WHERE id NOT IN ('poll_01', 'softaculous_review', 'banner')
2014-12-18 4:04:24 - 1 - ::1 - UPDATE abmmi_messages SET `repeated` = `repeated` + 1, viewed='0' WHERE msg_id = '330'
2014-12-18 4:04:24 - 1 - ::1 - DELETE FROM abmmi_ant_messages		                   WHERE end_date < CURRENT_TIMESTAMP
2014-12-18 4:04:24 - 1 - ::1 - UPDATE  abmmi_ant_messages SET viewed = viewed+1 , viewed_date = NOW() WHERE id = 'poll_01'					AND language_code = '*'
2014-12-18 4:04:24 - 1 - ::1 - UPDATE abmmi_users      			                  SET ip = '::1'      			                  WHERE user_id = '1'
2014-12-18 4:04:28 - 1 - ::1 - UPDATE abmmi_users      			                  SET ip = '::1'      			                  WHERE user_id = '1'
2014-12-18 4:04:28 - 1 - ::1 - UPDATE abmmi_messages SET `repeated` = `repeated` + 1, viewed='0' WHERE msg_id = '330'
2014-12-18 4:04:28 - 1 - ::1 - DELETE FROM abmmi_ant_messages		                   WHERE end_date < CURRENT_TIMESTAMP
2014-12-18 4:04:28 - 1 - ::1 - UPDATE  abmmi_ant_messages SET viewed = viewed+1 , viewed_date = NOW() WHERE id = 'softaculous_review'					AND language_code = '*'
2014-12-18 4:04:29 - 1 - ::1 - UPDATE abmmi_users      			                  SET ip = '::1'      			                  WHERE user_id = '1'
2014-12-18 4:04:29 - 1 - ::1 - SELECT					rl.resource_id, 					rd.name,					rd.title,					rd.description,					rd.resource_path,					rd.resource_code,					rm.default,					rm.sort_order	  				FROM abmmi_resource_library rl 				LEFT JOIN abmmi_resource_map rm ON rm.resource_id = rl.resource_id 				LEFT JOIN abmmi_resource_descriptions rd ON (rl.resource_id = rd.resource_id AND rd.language_id = '1')				WHERE rm.object_name = 'products'  and rm.object_id = '111'  and rl.type_id = 1				ORDER BY rm.sort_order ASC
2014-12-18 4:04:29 - 1 - ::1 - SELECT                        rd.*,                        rt.type_name,                        rt.default_icon                    FROM abmmi_resource_library rl                     LEFT JOIN abmmi_resource_descriptions rd ON (rl.resource_id = rd.resource_id)                    LEFT JOIN abmmi_resource_types rt ON (rl.type_id = rt.type_id )                    WHERE rl.resource_id = 100228
2014-12-18 4:04:29 - 1 - ::1 - SELECT                        rd.*,                        rt.type_name,                        rt.default_icon                    FROM abmmi_resource_library rl                     LEFT JOIN abmmi_resource_descriptions rd ON (rl.resource_id = rd.resource_id)                    LEFT JOIN abmmi_resource_types rt ON (rl.type_id = rt.type_id )                    WHERE rl.resource_id = 100228
2014-12-18 4:04:29 - 1 - ::1 - SELECT					rl.resource_id, 					rd.name,					rd.title,					rd.description,					rd.resource_path,					rd.resource_code,					rm.default,					rm.sort_order	  				FROM abmmi_resource_library rl 				LEFT JOIN abmmi_resource_map rm ON rm.resource_id = rl.resource_id 				LEFT JOIN abmmi_resource_descriptions rd ON (rl.resource_id = rd.resource_id AND rd.language_id = '1')				WHERE rm.object_name = 'products'  and rm.object_id = '118'  and rl.type_id = 1				ORDER BY rm.sort_order ASC
2014-12-18 4:04:29 - 1 - ::1 - SELECT                        rd.*,                        rt.type_name,                        rt.default_icon                    FROM abmmi_resource_library rl                     LEFT JOIN abmmi_resource_descriptions rd ON (rl.resource_id = rd.resource_id)                    LEFT JOIN abmmi_resource_types rt ON (rl.type_id = rt.type_id )                    WHERE rl.resource_id = 100229
2014-12-18 4:04:29 - 1 - ::1 - SELECT                        rd.*,                        rt.type_name,                        rt.default_icon                    FROM abmmi_resource_library rl                     LEFT JOIN abmmi_resource_descriptions rd ON (rl.resource_id = rd.resource_id)                    LEFT JOIN abmmi_resource_types rt ON (rl.type_id = rt.type_id )                    WHERE rl.resource_id = 100229
2014-12-18 4:04:29 - 1 - ::1 - SELECT					rl.resource_id, 					rd.name,					rd.title,					rd.description,					rd.resource_path,					rd.resource_code,					rm.default,					rm.sort_order	  				FROM abmmi_resource_library rl 				LEFT JOIN abmmi_resource_map rm ON rm.resource_id = rl.resource_id 				LEFT JOIN abmmi_resource_descriptions rd ON (rl.resource_id = rd.resource_id AND rd.language_id = '1')				WHERE rm.object_name = 'products'  and rm.object_id = '117'  and rl.type_id = 1				ORDER BY rm.sort_order ASC
2014-12-18 4:04:29 - 1 - ::1 - SELECT                        rd.*,                        rt.type_name,                        rt.default_icon                    FROM abmmi_resource_library rl                     LEFT JOIN abmmi_resource_descriptions rd ON (rl.resource_id = rd.resource_id)                    LEFT JOIN abmmi_resource_types rt ON (rl.type_id = rt.type_id )                    WHERE rl.resource_id = 100230
2014-12-18 4:04:29 - 1 - ::1 - SELECT                        rd.*,                        rt.type_name,                        rt.default_icon                    FROM abmmi_resource_library rl                     LEFT JOIN abmmi_resource_descriptions rd ON (rl.resource_id = rd.resource_id)                    LEFT JOIN abmmi_resource_types rt ON (rl.type_id = rt.type_id )                    WHERE rl.resource_id = 100230
2014-12-18 4:04:29 - 1 - ::1 - SELECT					rl.resource_id, 					rd.name,					rd.title,					rd.description,					rd.resource_path,					rd.resource_code,					rm.default,					rm.sort_order	  				FROM abmmi_resource_library rl 				LEFT JOIN abmmi_resource_map rm ON rm.resource_id = rl.resource_id 				LEFT JOIN abmmi_resource_descriptions rd ON (rl.resource_id = rd.resource_id AND rd.language_id = '1')				WHERE rm.object_name = 'products'  and rm.object_id = '113'  and rl.type_id = 1				ORDER BY rm.sort_order ASC
2014-12-18 4:04:29 - 1 - ::1 - SELECT                        rd.*,                        rt.type_name,                        rt.default_icon                    FROM abmmi_resource_library rl                     LEFT JOIN abmmi_resource_descriptions rd ON (rl.resource_id = rd.resource_id)                    LEFT JOIN abmmi_resource_types rt ON (rl.type_id = rt.type_id )                    WHERE rl.resource_id = 100231
2014-12-18 4:04:29 - 1 - ::1 - SELECT                        rd.*,                        rt.type_name,                        rt.default_icon                    FROM abmmi_resource_library rl                     LEFT JOIN abmmi_resource_descriptions rd ON (rl.resource_id = rd.resource_id)                    LEFT JOIN abmmi_resource_types rt ON (rl.type_id = rt.type_id )                    WHERE rl.resource_id = 100231
2014-12-18 4:04:29 - 1 - ::1 - SELECT					rl.resource_id, 					rd.name,					rd.title,					rd.description,					rd.resource_path,					rd.resource_code,					rm.default,					rm.sort_order	  				FROM abmmi_resource_library rl 				LEFT JOIN abmmi_resource_map rm ON rm.resource_id = rl.resource_id 				LEFT JOIN abmmi_resource_descriptions rd ON (rl.resource_id = rd.resource_id AND rd.language_id = '1')				WHERE rm.object_name = 'products'  and rm.object_id = '112'  and rl.type_id = 1				ORDER BY rm.sort_order ASC
2014-12-18 4:04:29 - 1 - ::1 - SELECT                        rd.*,                        rt.type_name,                        rt.default_icon                    FROM abmmi_resource_library rl                     LEFT JOIN abmmi_resource_descriptions rd ON (rl.resource_id = rd.resource_id)                    LEFT JOIN abmmi_resource_types rt ON (rl.type_id = rt.type_id )                    WHERE rl.resource_id = 100232
2014-12-18 4:04:29 - 1 - ::1 - SELECT                        rd.*,                        rt.type_name,                        rt.default_icon                    FROM abmmi_resource_library rl                     LEFT JOIN abmmi_resource_descriptions rd ON (rl.resource_id = rd.resource_id)                    LEFT JOIN abmmi_resource_types rt ON (rl.type_id = rt.type_id )                    WHERE rl.resource_id = 100232
2014-12-18 4:04:29 - 1 - ::1 - SELECT					rl.resource_id, 					rd.name,					rd.title,					rd.description,					rd.resource_path,					rd.resource_code,					rm.default,					rm.sort_order	  				FROM abmmi_resource_library rl 				LEFT JOIN abmmi_resource_map rm ON rm.resource_id = rl.resource_id 				LEFT JOIN abmmi_resource_descriptions rd ON (rl.resource_id = rd.resource_id AND rd.language_id = '1')				WHERE rm.object_name = 'products'  and rm.object_id = '116'  and rl.type_id = 1				ORDER BY rm.sort_order ASC
2014-12-18 4:04:29 - 1 - ::1 - SELECT                        rd.*,                        rt.type_name,                        rt.default_icon                    FROM abmmi_resource_library rl                     LEFT JOIN abmmi_resource_descriptions rd ON (rl.resource_id = rd.resource_id)                    LEFT JOIN abmmi_resource_types rt ON (rl.type_id = rt.type_id )                    WHERE rl.resource_id = 100233
2014-12-18 4:04:29 - 1 - ::1 - SELECT                        rd.*,                        rt.type_name,                        rt.default_icon                    FROM abmmi_resource_library rl                     LEFT JOIN abmmi_resource_descriptions rd ON (rl.resource_id = rd.resource_id)                    LEFT JOIN abmmi_resource_types rt ON (rl.type_id = rt.type_id )                    WHERE rl.resource_id = 100233
2014-12-18 4:04:29 - 1 - ::1 - SELECT					rl.resource_id, 					rd.name,					rd.title,					rd.description,					rd.resource_path,					rd.resource_code,					rm.default,					rm.sort_order	  				FROM abmmi_resource_library rl 				LEFT JOIN abmmi_resource_map rm ON rm.resource_id = rl.resource_id 				LEFT JOIN abmmi_resource_descriptions rd ON (rl.resource_id = rd.resource_id AND rd.language_id = '1')				WHERE rm.object_name = 'products'  and rm.object_id = '123'  and rl.type_id = 1				ORDER BY rm.sort_order ASC
2014-12-18 4:04:29 - 1 - ::1 - SELECT					rl.resource_id, 					rd.name,					rd.title,					rd.description,					rd.resource_path,					rd.resource_code,					rm.default,					rm.sort_order	  				FROM abmmi_resource_library rl 				LEFT JOIN abmmi_resource_map rm ON rm.resource_id = rl.resource_id 				LEFT JOIN abmmi_resource_descriptions rd ON (rl.resource_id = rd.resource_id AND rd.language_id = '1')				WHERE rm.object_name = 'products'  and rm.object_id = '127'  and rl.type_id = 1				ORDER BY rm.sort_order ASC
2014-12-18 4:04:29 - 1 - ::1 - SELECT					rl.resource_id, 					rd.name,					rd.title,					rd.description,					rd.resource_path,					rd.resource_code,					rm.default,					rm.sort_order	  				FROM abmmi_resource_library rl 				LEFT JOIN abmmi_resource_map rm ON rm.resource_id = rl.resource_id 				LEFT JOIN abmmi_resource_descriptions rd ON (rl.resource_id = rd.resource_id AND rd.language_id = '1')				WHERE rm.object_name = 'products'  and rm.object_id = '124'  and rl.type_id = 1				ORDER BY rm.sort_order ASC
2014-12-18 4:04:29 - 1 - ::1 - SELECT					rl.resource_id, 					rd.name,					rd.title,					rd.description,					rd.resource_path,					rd.resource_code,					rm.default,					rm.sort_order	  				FROM abmmi_resource_library rl 				LEFT JOIN abmmi_resource_map rm ON rm.resource_id = rl.resource_id 				LEFT JOIN abmmi_resource_descriptions rd ON (rl.resource_id = rd.resource_id AND rd.language_id = '1')				WHERE rm.object_name = 'products'  and rm.object_id = '125'  and rl.type_id = 1				ORDER BY rm.sort_order ASC
2014-12-18 4:04:33 - 1 - ::1 - UPDATE abmmi_users      			                  SET ip = '::1'      			                  WHERE user_id = '1'
2014-12-18 4:04:33 - 1 - ::1 - SELECT					rl.resource_id, 					rd.name,					rd.title,					rd.description,					rd.resource_path,					rd.resource_code,					rm.default,					rm.sort_order	  				FROM abmmi_resource_library rl 				LEFT JOIN abmmi_resource_map rm ON rm.resource_id = rl.resource_id 				LEFT JOIN abmmi_resource_descriptions rd ON (rl.resource_id = rd.resource_id AND rd.language_id = '1')				WHERE rm.object_name = 'products'  and rm.object_id = '123'  and rl.type_id = 1				ORDER BY rm.sort_order ASC
2014-12-18 4:04:33 - 1 - ::1 - UPDATE abmmi_messages SET `repeated` = `repeated` + 1, viewed='0' WHERE msg_id = '330'
2014-12-18 4:04:33 - 1 - ::1 - DELETE FROM abmmi_ant_messages		                   WHERE end_date < CURRENT_TIMESTAMP
2014-12-18 4:04:33 - 1 - ::1 - UPDATE  abmmi_ant_messages SET viewed = viewed+1 , viewed_date = NOW() WHERE id = 'banner'					AND language_code = '*'
2014-12-18 4:04:36 - 1 - ::1 - UPDATE abmmi_users      			                  SET ip = '::1'      			                  WHERE user_id = '1'
2014-12-18 4:04:37 - 1 - ::1 - SELECT					rl.resource_id, 					rd.name,					rd.title,					rd.description,					rd.resource_path,					rd.resource_code,					rm.default,					rm.sort_order	  				FROM abmmi_resource_library rl 				LEFT JOIN abmmi_resource_map rm ON rm.resource_id = rl.resource_id 				LEFT JOIN abmmi_resource_descriptions rd ON (rl.resource_id = rd.resource_id AND rd.language_id = '1')				WHERE rm.object_name = 'products'  and rm.object_id = '123'  and rl.type_id = 1				ORDER BY rm.sort_order ASC
2014-12-18 4:04:37 - 1 - ::1 - UPDATE abmmi_messages SET `repeated` = `repeated` + 1, viewed='0' WHERE msg_id = '330'
2014-12-18 4:04:37 - 1 - ::1 - DELETE FROM abmmi_ant_messages		                   WHERE end_date < CURRENT_TIMESTAMP
2014-12-18 4:04:37 - 1 - ::1 - UPDATE  abmmi_ant_messages SET viewed = viewed+1 , viewed_date = NOW() WHERE id = 'poll_01'					AND language_code = '*'
2014-12-18 4:04:37 - 1 - ::1 - UPDATE abmmi_users      			                  SET ip = '::1'      			                  WHERE user_id = '1'
2014-12-18 4:04:37 - 1 - ::1 - UPDATE abmmi_users      			                  SET ip = '::1'      			                  WHERE user_id = '1'
2014-12-18 4:04:37 - 1 - ::1 - UPDATE abmmi_users      			                  SET ip = '::1'      			                  WHERE user_id = '1'
2014-12-18 4:04:37 - 1 - ::1 - UPDATE abmmi_users      			                  SET ip = '::1'      			                  WHERE user_id = '1'
2014-12-18 4:05:03 - 1 - ::1 - UPDATE abmmi_users      			                  SET ip = '::1'      			                  WHERE user_id = '1'
2014-12-18 4:05:03 - 1 - ::1 - UPDATE abmmi_users      			                  SET ip = '::1'      			                  WHERE user_id = '1'
2014-12-18 4:05:04 - 1 - ::1 - UPDATE abmmi_users      			                  SET ip = '::1'      			                  WHERE user_id = '1'
2014-12-18 4:06:35 - 1 - ::1 - UPDATE abmmi_users      			                  SET ip = '::1'      			                  WHERE user_id = '1'
2014-12-18 4:06:35 - 1 - ::1 - INSERT INTO abmmi_resource_library                    SET type_id = '1',                        created = NOW()
2014-12-18 4:06:35 - 1 - ::1 - INSERT INTO abmmi_resource_descriptions (`name`, `title`, `description`, `resource_path`, `resource_code`, `created`, `resource_id`, `language_id`) VALUES ('Screen_Shot_2014-12-06_at_8.35.19_PM.png', '', '', '18/79/6.png', '', '2014-12-18 04:06:35', '100246', '1') 
2014-12-18 4:06:35 - 1 - ::1 - SELECT                        rd.*,                        rt.type_name,                        rt.default_icon                    FROM abmmi_resource_library rl                     LEFT JOIN abmmi_resource_descriptions rd ON (rl.resource_id = rd.resource_id)                    LEFT JOIN abmmi_resource_types rt ON (rl.type_id = rt.type_id )                    WHERE rl.resource_id = 100246
2014-12-18 4:06:35 - 1 - ::1 - SELECT                        rd.*,                        rt.type_name,                        rt.default_icon                    FROM abmmi_resource_library rl                     LEFT JOIN abmmi_resource_descriptions rd ON (rl.resource_id = rd.resource_id)                    LEFT JOIN abmmi_resource_types rt ON (rl.type_id = rt.type_id )                    WHERE rl.resource_id = 100246
2014-12-18 4:06:35 - 1 - ::1 - SELECT                        rd.*,                        rt.type_name,                        rt.default_icon                    FROM abmmi_resource_library rl                     LEFT JOIN abmmi_resource_descriptions rd ON (rl.resource_id = rd.resource_id)                    LEFT JOIN abmmi_resource_types rt ON (rl.type_id = rt.type_id )                    WHERE rl.resource_id = 100246
2014-12-18 4:06:35 - 1 - ::1 - SELECT                        rd.*,                        rt.type_name,                        rt.default_icon                    FROM abmmi_resource_library rl                     LEFT JOIN abmmi_resource_descriptions rd ON (rl.resource_id = rd.resource_id)                    LEFT JOIN abmmi_resource_types rt ON (rl.type_id = rt.type_id )                    WHERE rl.resource_id = 100246
2014-12-18 4:06:35 - 1 - ::1 - SELECT                        rd.*,                        rt.type_name,                        rt.default_icon                    FROM abmmi_resource_library rl                     LEFT JOIN abmmi_resource_descriptions rd ON (rl.resource_id = rd.resource_id)                    LEFT JOIN abmmi_resource_types rt ON (rl.type_id = rt.type_id )                    WHERE rl.resource_id = 100246
2014-12-18 4:06:35 - 1 - ::1 - SELECT                        rd.*,                        rt.type_name,                        rt.default_icon                    FROM abmmi_resource_library rl                     LEFT JOIN abmmi_resource_descriptions rd ON (rl.resource_id = rd.resource_id)                    LEFT JOIN abmmi_resource_types rt ON (rl.type_id = rt.type_id )                    WHERE rl.resource_id = 100246
2014-12-18 4:06:35 - 1 - ::1 - INSERT INTO abmmi_resource_map                    SET resource_id = '100246',                        object_name = 'products',                        object_id = '123',                        sort_order = '1',                        created = NOW()
2014-12-18 4:06:49 - 1 - ::1 - UPDATE abmmi_users      			                  SET ip = '::1'      			                  WHERE user_id = '1'
2014-12-18 4:06:49 - 1 - ::1 - UPDATE abmmi_users      			                  SET ip = '::1'      			                  WHERE user_id = '1'
2014-12-18 4:06:49 - 1 - ::1 - UPDATE abmmi_users      			                  SET ip = '::1'      			                  WHERE user_id = '1'
2014-12-18 4:06:49 - 1 - ::1 - UPDATE abmmi_users      			                  SET ip = '::1'      			                  WHERE user_id = '1'
2014-12-18 4:06:49 - 1 - ::1 - SELECT                        rd.*,                        rt.type_name,                        rt.default_icon                    FROM abmmi_resource_library rl                     LEFT JOIN abmmi_resource_descriptions rd ON (rl.resource_id = rd.resource_id)                    LEFT JOIN abmmi_resource_types rt ON (rl.type_id = rt.type_id )                    WHERE rl.resource_id = 100246
2014-12-18 4:06:49 - 1 - ::1 - UPDATE abmmi_users      			                  SET ip = '::1'      			                  WHERE user_id = '1'
2014-12-18 4:06:53 - 1 - ::1 - UPDATE abmmi_users      			                  SET ip = '::1'      			                  WHERE user_id = '1'
2014-12-18 4:06:53 - 1 - ::1 - SELECT                        rd.*,                        rt.type_name,                        rt.default_icon                    FROM abmmi_resource_library rl                     LEFT JOIN abmmi_resource_descriptions rd ON (rl.resource_id = rd.resource_id)                    LEFT JOIN abmmi_resource_types rt ON (rl.type_id = rt.type_id )                    WHERE rl.resource_id = 100246
2014-12-18 4:06:53 - 1 - ::1 - SELECT                        rd.*,                        rt.type_name,                        rt.default_icon                    FROM abmmi_resource_library rl                     LEFT JOIN abmmi_resource_descriptions rd ON (rl.resource_id = rd.resource_id)                    LEFT JOIN abmmi_resource_types rt ON (rl.type_id = rt.type_id )                    WHERE rl.resource_id = 100246
2014-12-18 4:06:53 - 1 - ::1 - SELECT                        rd.*,                        rt.type_name,                        rt.default_icon                    FROM abmmi_resource_library rl                     LEFT JOIN abmmi_resource_descriptions rd ON (rl.resource_id = rd.resource_id)                    LEFT JOIN abmmi_resource_types rt ON (rl.type_id = rt.type_id )                    WHERE rl.resource_id = 100246
2014-12-18 4:06:53 - 1 - ::1 - SELECT                        rd.*,                        rt.type_name,                        rt.default_icon                    FROM abmmi_resource_library rl                     LEFT JOIN abmmi_resource_descriptions rd ON (rl.resource_id = rd.resource_id)                    LEFT JOIN abmmi_resource_types rt ON (rl.type_id = rt.type_id )                    WHERE rl.resource_id = 100246
2014-12-18 4:06:53 - 1 - ::1 - DELETE FROM abmmi_resource_map WHERE resource_id = '100246' 
2014-12-18 4:06:53 - 1 - ::1 - DELETE FROM abmmi_resource_descriptions WHERE resource_id = '100246' 
2014-12-18 4:06:53 - 1 - ::1 - DELETE FROM abmmi_resource_library WHERE resource_id = '100246' 
2014-12-18 4:06:54 - 1 - ::1 - UPDATE abmmi_users      			                  SET ip = '::1'      			                  WHERE user_id = '1'
2014-12-18 4:06:55 - 1 - ::1 - UPDATE abmmi_users      			                  SET ip = '::1'      			                  WHERE user_id = '1'
2014-12-18 4:06:55 - 1 - ::1 - UPDATE abmmi_users      			                  SET ip = '::1'      			                  WHERE user_id = '1'
2014-12-18 4:16:16 - 1 - ::1 - UPDATE abmmi_users      			                  SET ip = '::1'      			                  WHERE user_id = '1'
2014-12-18 4:16:16 - 1 - ::1 - INSERT INTO abmmi_resource_library                    SET type_id = '1',                        created = NOW()
2014-12-18 4:16:30 - 1 - ::1 - UPDATE abmmi_users      			                  SET ip = '::1'      			                  WHERE user_id = '1'
2014-12-18 4:16:30 - 1 - ::1 - INSERT INTO abmmi_resource_library                    SET type_id = '1',                        created = NOW()
2014-12-18 4:17:09 - 1 - ::1 - UPDATE abmmi_users      			                  SET ip = '::1'      			                  WHERE user_id = '1'
2014-12-18 4:17:09 - 1 - ::1 - INSERT INTO abmmi_resource_library                    SET type_id = '1',                        created = NOW()
2014-12-18 4:17:30 - 1 - ::1 - UPDATE abmmi_users      			                  SET ip = '::1'      			                  WHERE user_id = '1'
2014-12-18 4:17:30 - 1 - ::1 - INSERT INTO abmmi_resource_library                    SET type_id = '1',                        created = NOW()
2014-12-18 4:17:48 - 1 - ::1 - UPDATE abmmi_users      			                  SET ip = '::1'      			                  WHERE user_id = '1'
2014-12-18 4:17:48 - 1 - ::1 - UPDATE abmmi_users      			                  SET ip = '::1'      			                  WHERE user_id = '1'
2014-12-18 4:17:48 - 1 - ::1 - UPDATE abmmi_users      			                  SET ip = '::1'      			                  WHERE user_id = '1'
2014-12-18 4:17:48 - 1 - ::1 - UPDATE abmmi_users      			                  SET ip = '::1'      			                  WHERE user_id = '1'
2014-12-18 4:17:54 - 1 - ::1 - UPDATE abmmi_users      			                  SET ip = '::1'      			                  WHERE user_id = '1'
2014-12-18 4:17:54 - 1 - ::1 - SELECT		            count(*) as total		        FROM abmmi_reviews r		            LEFT JOIN abmmi_product_descriptions pd ON (r.product_id = pd.product_id)		            LEFT JOIN abmmi_products p ON (r.product_id = p.product_id)		        WHERE pd.language_id = '1'
2014-12-18 4:17:54 - 1 - ::1 - UPDATE abmmi_messages SET `repeated` = `repeated` + 1, viewed='0' WHERE msg_id = '330'
2014-12-18 4:17:54 - 1 - ::1 - UPDATE abmmi_users      			                  SET ip = '::1'      			                  WHERE user_id = '1'
2014-12-18 4:17:54 - 1 - ::1 - INSERT INTO abmmi_language_definitions (language_id,block,section,language_key,language_value,create_date) VALUES ('11',                          'common_ant',                          '1',                          'notification',                          'Attention!',                          NOW() ), ('11',                          'common_ant',                          '1',                          'warning',                          'Warning!',                          NOW() )
2014-12-18 4:17:54 - 1 - ::1 - SELECT					rl.resource_id, 					rd.name,					rd.title,					rd.description,					rd.resource_path,					rd.resource_code,					rm.default,					rm.sort_order	  				FROM abmmi_resource_library rl 				LEFT JOIN abmmi_resource_map rm ON rm.resource_id = rl.resource_id 				LEFT JOIN abmmi_resource_descriptions rd ON (rl.resource_id = rd.resource_id AND rd.language_id = '11')				WHERE rm.object_name = 'products'  and rm.object_id = '123'  and rl.type_id = 1				ORDER BY rm.sort_order ASC
2014-12-18 4:17:54 - 1 - ::1 - UPDATE abmmi_messages SET `repeated` = `repeated` + 1, viewed='0' WHERE msg_id = '330'
2014-12-18 4:17:54 - 1 - ::1 - DELETE FROM abmmi_ant_messages		                   WHERE end_date < CURRENT_TIMESTAMP
2014-12-18 4:17:54 - 1 - ::1 - UPDATE  abmmi_ant_messages SET viewed = viewed+1 , viewed_date = NOW() WHERE id = 'softaculous_review'					AND language_code = '*'
2014-12-18 4:17:54 - 1 - ::1 - INSERT INTO abmmi_language_definitions (language_id,block,section,language_key,language_value,create_date) VALUES ('11',                          'audit_log_audit_log',                          '1',                          'audit_log_name',                          'Audit Logs ',                          NOW() ), ('11',                          'audit_log_audit_log',                          '1',                          'audit_log_filename',                          'Audit Log file :  ',                          NOW() ), ('11',                          'audit_log_audit_log',                          '1',                          'column_username',                          'User Login',                          NOW() ), ('11',                          'audit_log_audit_log',                          '1',                          'column_action',                          'Action',                          NOW() ), ('11',                          'audit_log_audit_log',                          '1',                          'column_filename',                          'Log File Name',                          NOW() ), ('11',                          'audit_log_audit_log',                          '1',                          'column_ip',                          'IP-address',                          NOW() ), ('11',                          'audit_log_audit_log',                          '1',                          'column_date_added',                          'Date Added',                          NOW() ), ('11',                          'audit_log_audit_log',                          '1',                          'column_sql',                          'SQL Request',                          NOW() ), ('11',                          'audit_log_audit_log',                          '1',                          'entry_date_range',                          'Date Range:',                          NOW() ), ('11',                          'audit_log_audit_log',                          '1',                          'text_delete',                          'delete',                          NOW() ), ('11',                          'audit_log_audit_log',                          '1',                          'text_confirm_delete_log',                          'Confirm to delete this file?',                          NOW() ), ('11',                          'audit_log_audit_log',                          '1',                          'text_success',                          'Success: Log file was delete succesfully.',                          NOW() ), ('11',                          'audit_log_audit_log',                          '1',                          'text_date_from',                          ' Date range from: ',                          NOW() ), ('11',                          'audit_log_audit_log',                          '1',                          'text_date_to',                          ' to: ',                          NOW() ), ('11',                          'audit_log_audit_log',                          '1',                          'button_dialog_cancel',                          'Cancel',                          NOW() ), ('11',                          'audit_log_audit_log',                          '1',                          'error_permission',                          'Warning: You do not have permission to modify audit logs!',                          NOW() ), ('11',                          'audit_log_audit_log',                          '1',                          'error_no_matching_orders',                          'There are no orders that need to be sent an e-mail.',                          NOW() ), ('11',                          'audit_log_audit_log',                          '1',                          'audit_log_status',                          'Status',                          NOW() ), ('11',                          'audit_log_audit_log',                          '1',                          'audit_log_status_0',                          'Disabled',                          NOW() ), ('11',                          'audit_log_audit_log',                          '1',                          'audit_log_status_1',                          'Enabled',                          NOW() )
2014-12-18 4:17:55 - 1 - ::1 - UPDATE abmmi_users      			                  SET ip = '::1'      			                  WHERE user_id = '1'
2014-12-18 4:17:55 - 1 - ::1 - UPDATE abmmi_users      			                  SET ip = '::1'      			                  WHERE user_id = '1'
2014-12-18 4:17:55 - 1 - ::1 - UPDATE abmmi_users      			                  SET ip = '::1'      			                  WHERE user_id = '1'
2014-12-18 4:17:55 - 1 - ::1 - UPDATE abmmi_users      			                  SET ip = '::1'      			                  WHERE user_id = '1'
2014-12-18 4:17:58 - 1 - ::1 - UPDATE abmmi_users      			                  SET ip = '::1'      			                  WHERE user_id = '1'
2014-12-18 4:17:58 - 1 - ::1 - UPDATE abmmi_users      			                  SET ip = '::1'      			                  WHERE user_id = '1'
2014-12-18 4:17:59 - 1 - ::1 - UPDATE abmmi_users      			                  SET ip = '::1'      			                  WHERE user_id = '1'
2014-12-18 4:18:06 - 1 - ::1 - UPDATE abmmi_users      			                  SET ip = '::1'      			                  WHERE user_id = '1'
2014-12-18 4:18:06 - 1 - ::1 - INSERT INTO abmmi_resource_library                    SET type_id = '1',                        created = NOW()
2014-12-18 4:20:46 - 1 - ::1 - UPDATE abmmi_users      			                  SET ip = '::1'      			                  WHERE user_id = '1'
2014-12-18 4:20:46 - 1 - ::1 - INSERT INTO abmmi_resource_library                    SET type_id = '1',                        created = NOW()
2014-12-18 4:24:53 - 1 - ::1 - UPDATE abmmi_users      			                  SET ip = '::1'      			                  WHERE user_id = '1'
2014-12-18 4:24:53 - 1 - ::1 - UPDATE abmmi_users      			                  SET ip = '::1'      			                  WHERE user_id = '1'
2014-12-18 4:24:53 - 1 - ::1 - UPDATE abmmi_users      			                  SET ip = '::1'      			                  WHERE user_id = '1'
2014-12-18 4:24:53 - 1 - ::1 - UPDATE abmmi_users      			                  SET ip = '::1'      			                  WHERE user_id = '1'
2014-12-18 4:24:56 - 1 - ::1 - UPDATE abmmi_users      			                  SET ip = '::1'      			                  WHERE user_id = '1'
2014-12-18 4:24:56 - 1 - ::1 - SELECT		            count(*) as total		        FROM abmmi_reviews r		            LEFT JOIN abmmi_product_descriptions pd ON (r.product_id = pd.product_id)		            LEFT JOIN abmmi_products p ON (r.product_id = p.product_id)		        WHERE pd.language_id = '11'
2014-12-18 4:24:56 - 1 - ::1 - UPDATE abmmi_messages SET `repeated` = `repeated` + 1, viewed='0' WHERE msg_id = '330'
2014-12-18 4:24:56 - 1 - ::1 - UPDATE abmmi_users      			                  SET ip = '::1'      			                  WHERE user_id = '1'
2014-12-18 4:24:56 - 1 - ::1 - SELECT					rl.resource_id, 					rd.name,					rd.title,					rd.description,					rd.resource_path,					rd.resource_code,					rm.default,					rm.sort_order	  				FROM abmmi_resource_library rl 				LEFT JOIN abmmi_resource_map rm ON rm.resource_id = rl.resource_id 				LEFT JOIN abmmi_resource_descriptions rd ON (rl.resource_id = rd.resource_id AND rd.language_id = '1')				WHERE rm.object_name = 'products'  and rm.object_id = '123'  and rl.type_id = 1				ORDER BY rm.sort_order ASC
2014-12-18 4:24:56 - 1 - ::1 - UPDATE abmmi_messages SET `repeated` = `repeated` + 1, viewed='0' WHERE msg_id = '330'
2014-12-18 4:24:56 - 1 - ::1 - DELETE FROM abmmi_ant_messages		                   WHERE end_date < CURRENT_TIMESTAMP
2014-12-18 4:24:56 - 1 - ::1 - UPDATE  abmmi_ant_messages SET viewed = viewed+1 , viewed_date = NOW() WHERE id = 'banner'					AND language_code = '*'
2014-12-18 4:24:57 - 1 - ::1 - UPDATE abmmi_users      			                  SET ip = '::1'      			                  WHERE user_id = '1'
2014-12-18 4:24:57 - 1 - ::1 - UPDATE abmmi_users      			                  SET ip = '::1'      			                  WHERE user_id = '1'
2014-12-18 4:24:57 - 1 - ::1 - UPDATE abmmi_users      			                  SET ip = '::1'      			                  WHERE user_id = '1'
2014-12-18 4:24:57 - 1 - ::1 - UPDATE abmmi_users      			                  SET ip = '::1'      			                  WHERE user_id = '1'
2014-12-18 4:25:00 - 1 - ::1 - UPDATE abmmi_users      			                  SET ip = '::1'      			                  WHERE user_id = '1'
2014-12-18 4:25:00 - 1 - ::1 - UPDATE abmmi_users      			                  SET ip = '::1'      			                  WHERE user_id = '1'
2014-12-18 4:25:00 - 1 - ::1 - UPDATE abmmi_users      			                  SET ip = '::1'      			                  WHERE user_id = '1'
2014-12-18 4:25:08 - 1 - ::1 - UPDATE abmmi_users      			                  SET ip = '::1'      			                  WHERE user_id = '1'
2014-12-18 4:25:08 - 1 - ::1 - INSERT INTO abmmi_resource_library                    SET type_id = '1',                        created = NOW()
